{
  "entryElement": "main",
  "redis": {
    "keyPrefix": "clast",
    "host": "localhost",
    "port": 6379,
    "db": 0
  },
  "server": {
    "host": "localhost",
    "logIP": false,
    "port": 4000,
    "useOutputCache": false,
    "outputCacheTtl": 86400
  },
  "plade": {
    "clientId": "PLADE_CLIENT_ID",
    "currency": "KSH"
  },
  "sw": {
    "enabled": true,
    "backendHost": "api.plade.io"
  },
  "runtime": {
    "backendSync": true,
    "cart": {
      "taxPercentage": 0.16,
      "countPerItemQuantity": false
    },
    "storage": {
      "dbName": "clast",
      "drivers": {
        "user": "INDEXEDDB",
        "cart": "INDEXEDDB",
        "orders": "INDEXEDDB",
        "categories": "INDEXEDDB",
        "collections": "INDEXEDDB",
        "products": "INDEXEDDB",
        "cms": "INDEXEDDB"
      }
    },
    "analytics": {
      "id": false
    }
  }
}
